	0
num_bsites	72384
num_chains	9671
bsite_surf_ALA	10130
bsite_surf_ARG	20236
bsite_surf_ASN	27463
bsite_surf_ASP	16660
bsite_surf_CYS	2340
bsite_surf_GLN	17782
bsite_surf_GLU	21811
bsite_surf_GLY	24488
bsite_surf_HIS	8267
bsite_surf_ILE	12302
bsite_surf_LEU	13074
bsite_surf_LYS	32830
bsite_surf_MET	4527
bsite_surf_PHE	4953
bsite_surf_PRO	21379
bsite_surf_SER	17857
bsite_surf_THR	22234
bsite_surf_TRP	5809
bsite_surf_TYR	6716
bsite_surf_VAL	11335
bsite_core_ALA	12725
bsite_core_ARG	10137
bsite_core_ASN	10524
bsite_core_ASP	7129
bsite_core_CYS	8649
bsite_core_GLN	8292
bsite_core_GLU	7152
bsite_core_GLY	12862
bsite_core_HIS	4887
bsite_core_ILE	23548
bsite_core_LEU	26842
bsite_core_LYS	5480
bsite_core_MET	6283
bsite_core_PHE	12279
bsite_core_PRO	8694
bsite_core_SER	16025
bsite_core_THR	14800
bsite_core_TRP	9620
bsite_core_TYR	12757
bsite_core_VAL	21455
other_surf_ALA	61879
other_surf_ARG	69663
other_surf_ASN	91186
other_surf_ASP	86692
other_surf_CYS	11056
other_surf_GLN	64560
other_surf_GLU	97941
other_surf_GLY	99996
other_surf_HIS	24932
other_surf_ILE	44587
other_surf_LEU	65192
other_surf_LYS	108522
other_surf_MET	16217
other_surf_PHE	22902
other_surf_PRO	80425
other_surf_SER	89291
other_surf_THR	108536
other_surf_TRP	13035
other_surf_TYR	29594
other_surf_VAL	54960
other_core_ALA	84348
other_core_ARG	31400
other_core_ASN	39459
other_core_ASP	29620
other_core_CYS	44309
other_core_GLN	32567
other_core_GLU	28910
other_core_GLY	80277
other_core_HIS	22479
other_core_ILE	106984
other_core_LEU	135362
other_core_LYS	24915
other_core_MET	30422
other_core_PHE	69364
other_core_PRO	48564
other_core_SER	72786
other_core_THR	73290
other_core_TRP	28497
other_core_TYR	59530
other_core_VAL	112548
total_ALA	169082
total_ARG	131436
total_ASN	168632
total_ASP	140101
total_CYS	66354
total_GLN	123201
total_GLU	155814
total_GLY	217623
total_HIS	60565
total_ILE	187421
total_LEU	240470
total_LYS	171747
total_MET	57449
total_PHE	109498
total_PRO	159062
total_SER	195959
total_THR	218860
total_TRP	56961
total_TYR	108597
total_VAL	200298
